Web Scraping – Advanced R
…
all_pages <- map(.x = ________, 
                 .f = ________)

The map() function returns a list of dataframes. What function should we use to bind each of these dataframes together to form one large dataframe on cheeses?

bind_cols()

bind_rows()

inner_join()

full_join()

# A tibble: 2,046 × 3
   cheese                            url                                   image
   <chr>                             <chr>                                 <lgl>
 1 2 Year Aged Cumin Gouda           https://www.cheese.com/2-year-aged-c… TRUE 
 2 3-Cheese Italian Blend            https://www.cheese.com/3-cheese-ital… FALSE
 3 30 Month Aged Parmigiano Reggiano https://www.cheese.com/30-month-aged… TRUE 
 4 3yrs Aged Vintage Gouda           https://www.cheese.com/3yrs-aged-vin… TRUE 
 5 Aarewasser                        https://www.cheese.com/aarewasser/    TRUE 
 6 Abbaye de Belloc                  https://www.cheese.com/abbaye-de-bel… TRUE 
 7 Abbaye de Belval                  https://www.cheese.com/abbaye-de-bel… FALSE
 8 Abbaye de Citeaux                 https://www.cheese.com/abbaye-de-cit… TRUE 
 9 Abbaye de Tamié                   https://www.cheese.com/tamie/         TRUE 
10 Abbaye de Timadeuc                https://www.cheese.com/abbaye-de-tim… TRUE 
# ℹ 2,036 more rows
…
